[
    {
        "id": "cover",
        "string": "Couverture",
        "type": "md",
        "url": "https://pad.editionsburnaout.fr/p/lure-pagedjs-2024-06-cover"
    },
    {
        "id": "txt-warde",
        "string": "Texte principal",
        "type": "md",
        "url": "https://pad.editionsburnaout.fr/p/lure-pagedjs-2024-06-html"
    },
    {
        "id": "printing-office",
        "string": "Printing office",
        "type": "md",
        "url": "https://pad.editionsburnaout.fr/p/lure-pagedjs-2024-06-printing-office"
    },
    {
        "id": "txt-pinter",
        "string": "Texte secondaire",
        "type": "md",
        "url": "https://pad.editionsburnaout.fr/p/lure-pagedjs-2024-06-pinter"
    },
    {
        "id": "colophon",
        "string": "Colophon",
        "type": "md",
        "url": "https://pad.editionsburnaout.fr/p/lure-pagedjs-2024-06-credits"
    },
    {
        "id": "css",
        "string": "Style",
        "type": "css",
        "url": "https://annuel2.framapad.org/p/lure-pagedjs-2024-06-css"
    }
]